ISSS626-GAA - Take-home Exercise 2: Discovering impacts of COVID-19 on Thailand tourism economy at the province level using spatial and spatio-temporal statistics
…
`summarise()` has grouped output by 'province_eng', 'year'. You can override
using the `.groups` argument.

# Spread the data so that each year/variable combination becomes a new column
reshaped_data <- summed_data %>%
  unite("year_variable", year, variable, sep = "_") %>%
  pivot_wider(names_from = year_variable, values_from = total_value)

# View the reshaped data
print(reshaped_data)

# A tibble: 77 × 11
# Groups:   province_eng [77]
   province_eng  `2019_no_tourist_all` `2019_revenue_all` `2020_no_tourist_all`
   <chr>                         <dbl>              <dbl>                 <dbl>
 1 Amnat Charoen                306727          439290000                153692
 2 Ang Thong                    828556         1013520000                377321
 3 Bangkok                    66966562      1067813760000              23617914
 4 Bueng Kan                    606194         1070360000                359268
 5 Buriram                     2330523         4703950000                960463
 6 Chachoengsao                3466731         5085780000               2072363
 7 Chainat                      853942         1336560000                394900
 8 Chaiyaphum                  1804320         2203120000                808093
 9 Chanthaburi                 2484480         8713840000               1421555
10 Chiang Mai                 11165860       110670330000               6007763
# ℹ 67 more rows
# ℹ 7 more variables: `2020_revenue_all` <dbl>, `2021_no_tourist_all` <dbl>,
#   `2021_revenue_all` <dbl>, `2022_no_tourist_all` <dbl>,
#   `2022_revenue_all` <dbl>, `2023_no_tourist_all` <dbl>,
#   `2023_revenue_all` <dbl>
…
